<svg width="189" height="30" viewBox="0 0 189 30" fill="none" xmlns="http://www.w3.org/2000/svg">
<g clip-path="url(#clip0_4_233)">
<path d="M1.20044 7.22872L1.19729 29.5H0.0361328V0.867014L10.1105 26.1652L19.8097 0.909472V29.4894H18.6601L18.6686 7.21809L10.0989 29.4894L1.20044 7.21809V7.22872Z" fill="#7F7873"/>
<path d="M25.3298 22.9475L23.0528 29.4526H21.8252L28.9882 9.07178L36.0985 29.4526H34.871L32.595 22.9475H25.3298ZM28.9882 12.4024L25.7397 21.7591H32.1851L28.9882 12.4024Z" fill="#7F7873"/>
<path d="M46.2987 29.5322H44.9678L39.4686 20.1755H38.9828V29.5322H37.8828V9.74612H40.2873C42.027 9.74612 43.0238 10.0137 43.8941 10.7264C44.9942 11.6472 45.6074 13.1627 45.6074 14.9746C45.6074 17.3504 44.5084 19.2526 42.8194 19.8463C42.1292 20.0842 41.8479 20.1139 40.7478 20.1734L46.2987 29.5301V29.5322ZM40.594 19.0168C43.0754 19.0168 44.4821 17.531 44.4821 14.9767C44.4821 13.4325 43.8941 12.0954 42.9732 11.5314C42.3083 11.1151 41.4896 10.9367 40.3642 10.9367H38.9828V19.0168H40.594Z" fill="#7F7873"/>
<path d="M57.8892 9.6716H59.3981L51.0592 19.2068L59.9102 29.4556H58.2991L50.2921 20.0681L49.8832 20.5439V29.4556H48.7832V9.66946H49.8832V18.8786L57.8892 9.66946V9.6716Z" fill="#7F7873"/>
<path d="M72.4303 20.2921L69.6296 29.5405H68.3262L77.1024 0.482693L85.8659 29.5405H84.5625L81.7618 20.2921H72.4303ZM81.3235 18.8085L77.1024 4.77869L72.8823 18.8085H81.3235Z" fill="#7F7873"/>
<path d="M89.5005 28.2578H93.8238V29.4463H88.4004V9.66018H89.5005V28.2578Z" fill="#7F7873"/>
<path d="M97.6136 10.946V18.135H104.495V19.2927H97.6136V28.3531H104.648V29.5415H96.4883V9.7554H104.648V10.9439H97.6136V10.946Z" fill="#7F7873"/>
<path d="M107.307 9.6716H108.56L112.423 17.9886L116.259 9.6716H117.513L113.062 19.3554L117.769 29.4556H116.515L112.423 20.6926L108.381 29.4556H107.153L111.783 19.3554L107.307 9.6716Z" fill="#7F7873"/>
<path d="M123.324 22.9475L121.047 29.4526H119.819L126.981 9.07178L134.093 29.4526H132.865L130.588 22.9475H123.324ZM126.981 12.4024L123.733 21.7591H130.179L126.981 12.4024Z" fill="#7F7873"/>
<path d="M136.073 9.45921L150.372 26.8982V9.70353H151.472V29.9888L137.173 12.6136V29.4896H136.073V9.46984V9.45921Z" fill="#7F7873"/>
<path d="M154.618 9.6716H157.969C160.655 9.6716 162.574 10.5032 164.21 12.4043C165.822 14.2756 166.717 16.8012 166.717 19.5636C166.717 22.326 165.822 24.8505 164.21 26.7229C162.574 28.624 160.629 29.4556 157.969 29.4556H154.618V9.66946V9.6716ZM157.944 28.3C162.42 28.3 165.591 24.6763 165.591 19.5668C165.591 14.4572 162.42 10.8632 157.944 10.8632H155.718V28.3022H157.944V28.3Z" fill="#7F7873"/>
<path d="M170.319 10.946V18.135H177.199V19.2927H170.319V28.3531H177.353V29.5415H169.193V9.7554H177.353V10.9439H170.319V10.946Z" fill="#7F7873"/>
<path d="M188.969 29.5322H187.639L182.139 20.1755H181.653V29.5322H180.553V9.74612H182.957C184.697 9.74612 185.694 10.0137 186.564 10.7264C187.664 11.6472 188.278 13.1627 188.278 14.9746C188.278 17.3504 187.178 19.2526 185.49 19.8463C184.799 20.0842 184.518 20.1139 183.418 20.1734L188.969 29.5301V29.5322ZM183.265 19.0168C185.745 19.0168 187.152 17.531 187.152 14.9767C187.152 13.4325 186.564 12.0954 185.643 11.5314C184.978 11.1151 184.16 10.9367 183.034 10.9367H181.653V19.0168H183.265Z" fill="#7F7873"/>
</g>
<defs>
<clipPath id="clip0_4_233">
<rect width="189" height="30" fill="white"/>
</clipPath>
</defs>
</svg>
